hw/hw4/E15Process_tb.vcd
$date
	Tue Feb 21 16:47:25 2023
$end
$version
	Icarus Verilog
$end
$timescale
	100ps
$end
$scope module E15Process_TB $end
$var reg 1 ! clk $end
$scope module proc $end
$var wire 1 " addNotSub $end
$var wire 1 ! clk $end
$var wire 4 # storeVal [3:0] $end
$var wire 2 $ src [1:0] $end
$var wire 1 % pcz $end
$var wire 4 & pcRes [3:0] $end
$var wire 4 ' pcIncr [3:0] $end
$var wire 4 ( operand2 [3:0] $end
$var wire 4 ) operand1 [3:0] $end
$var wire 4 * opCode [3:0] $end
$var wire 4 + immData [3:0] $end
$var wire 2 , dst [1:0] $end
$var wire 1 - aluOutputZero $end
$var wire 4 . aluOutput [3:0] $end
$var reg 4 / pc [3:0] $end
$var reg 4 0 r0 [3:0] $end
$var reg 4 1 r1 [3:0] $end
$var reg 4 2 r2 [3:0] $end
$var reg 4 3 r3 [3:0] $end
$var reg 1 4 zFlag $end
$scope module dataALU $end
$var wire 1 " addNotSub $end
$var wire 4 5 dst [3:0] $end
$var wire 4 6 src [3:0] $end
$var wire 1 - zFlag $end
$var wire 4 7 res [3:0] $end
$var wire 1 8 Cout $end
$scope module the_adder $end
$var wire 4 9 A [3:0] $end
$var wire 4 : B [3:0] $end
$var wire 1 ; Cin $end
$var wire 1 < temp2 $end
$var wire 1 = temp1 $end
$var wire 1 > temp0 $end
$var wire 4 ? S [3:0] $end
$var wire 1 8 Cout $end
$scope module first $end
$var wire 1 @ A $end
$var wire 1 A B $end
$var wire 1 ; Cin $end
$var wire 1 > Cout $end
$var wire 1 B S $end
$upscope $end
$scope module fourth $end
$var wire 1 C A $end
$var wire 1 D B $end
$var wire 1 8 Cout $end
$var wire 1 E S $end
$var wire 1 < Cin $end
$upscope $end
$scope module second $end
$var wire 1 F A $end
$var wire 1 G B $end
$var wire 1 > Cin $end
$var wire 1 = Cout $end
$var wire 1 H S $end
$upscope $end
$scope module third $end
$var wire 1 I A $end
$var wire 1 J B $end
$var wire 1 = Cin $end
$var wire 1 < Cout $end
$var wire 1 K S $end
$upscope $end
$upscope $end
$upscope $end
$scope module pcALU $end
$var wire 1 L addNotSub $end
$var wire 4 M dst [3:0] $end
$var wire 4 N src [3:0] $end
$var wire 1 % zFlag $end
$var wire 4 O res [3:0] $end
$var wire 1 P Cout $end
$scope module the_adder $end
$var wire 4 Q A [3:0] $end
$var wire 4 R B [3:0] $end
$var wire 1 S Cin $end
$var wire 1 T temp2 $end
$var wire 1 U temp1 $end
$var wire 1 V temp0 $end
$var wire 4 W S [3:0] $end
$var wire 1 P Cout $end
$scope module first $end
$var wire 1 X A $end
$var wire 1 Y B $end
$var wire 1 S Cin $end
$var wire 1 V Cout $end
$var wire 1 Z S $end
$upscope $end
$scope module fourth $end
$var wire 1 [ A $end
$var wire 1 \ B $end
$var wire 1 P Cout $end
$var wire 1 ] S $end
$var wire 1 T Cin $end
$upscope $end
$scope module second $end
$var wire 1 ^ A $end
$var wire 1 _ B $end
$var wire 1 V Cin $end
$var wire 1 U Cout $end
$var wire 1 ` S $end
$upscope $end
$scope module third $end
$var wire 1 a A $end
$var wire 1 b B $end
$var wire 1 U Cin $end
$var wire 1 T Cout $end
$var wire 1 c S $end
$upscope $end
$upscope $end
$upscope $end
$upscope $end
$upscope $end
$enddefinitions $end
#0
$dumpvars
0c
0b
0a
0`
0_
0^
0]
0\
0[
1Z
0Y
1X
b1 W
0V
0U
0T
0S
b0 R
b1 Q
0P
b1 O
b0 N
b1 M
1L
xK
xJ
xI
xH
xG
xF
xE
xD
xC
xB
xA
x@
bx ?
x>
x=
x<
1;
bx :
bx 9
x8
bx 7
bx 6
bx 5
x4
bx 3
bx 2
bx 1
bx 0
b0 /
bx .
x-
b0 ,
b0 +
b1001 *
bx )
bx (
b1 '
b1 &
0%
b0 $
b0 #
0"
0!
$end
#30
18
1<
1=
1>
1`
1A
1G
1J
1D
1V
b1111 :
0%
b10 &
b10 O
b10 W
0Z
b1111 #
b0 )
b0 6
x@
xF
xI
xC
b1 ,
b1111 +
1Y
bx (
bx 5
bx 9
b1 R
b1 /
b1 N
b0 0
1!
#60
0!
#90
1B
1H
1K
0-
b1111 .
b1111 7
b1111 ?
1E
0V
0c
1Z
0%
b11 &
b11 O
b11 W
1`
0U
1@
1F
1I
1C
b1111 #
b1111 (
b1111 5
b1111 9
b1110 *
b0 +
0Y
1_
b10 R
b10 /
b10 N
b1111 1
1!
#120
0!
#150
b0 #
1c
1U
1-
0B
0H
0K
b0 .
b0 7
b0 ?
0E
0%
0`
1V
0@
0F
0I
0C
b100 &
b100 O
b100 W
0Z
b0 (
b0 5
b0 9
b10 *
b0 ,
b111 +
1Y
b11 R
b11 /
b11 N
04
1!
#180
0!
#210
b1 #
1B
0>
0H
0=
0K
0<
0-
b1 .
b1 7
b1 ?
0E
08
0A
0G
0J
0D
b0 :
0V
0]
b1111 )
b1111 6
1Z
0`
0U
0%
b101 &
b101 O
b101 W
1c
0T
b1111 *
b1111 +
0Y
0_
1b
b100 R
b100 /
b100 N
1!
#240
0!
#270
18
1-
1<
b0 #
1=
0B
1>
0H
0K
b0 .
b0 7
b0 ?
0E
1A
1G
1J
1D
1`
b1111 :
1V
b110 &
b110 O
b110 W
0Z
b0 )
b0 6
b10 *
b11 +
1Y
b101 R
b101 /
b101 N
1!
#300
0!
#330
b1 #
0=
0K
0<
0E
08
0]
0>
0T
0-
b1 .
b1 7
b1 ?
1B
1A
0G
0J
0D
b1 )
b1 6
0V
1c
0;
b1 :
1Z
b111 &
b111 O
b111 W
1`
0U
1"
b1011 *
b1 +
0Y
1_
b110 R
b110 /
b110 N
1!
#360
0!
#390
b0 #
1P
18
1<
1T
0H
1-
0c
0B
1=
0K
b0 .
b0 7
b0 ?
0E
1U
0]
1>
0A
1G
1J
1D
1V
1;
1^
1[
b1110 :
b10 &
b10 O
b10 W
0Z
0"
b1011 '
b1011 M
b1011 Q
b1 )
b1 6
1@
b0 *
b1011 +
1Y
b1 (
b1 5
b1 9
b111 R
b111 /
b111 N
b1 0
1!
#420
0!
#450
b1110 #
0U
0P
1H
1K
0-
b1110 .
b1110 7
b1110 ?
1E
0V
0]
1F
1I
1C
0^
0[
1Z
b11 &
b11 O
b11 W
0c
0T
b1111 (
b1111 5
b1111 9
b1 '
b1 M
b1 Q
b1110 *
b1 ,
b0 +
0Y
0b
b10 R
b10 /
b10 N
1!
#480
0!
#510
b0 #
1c
1U
1-
0H
0K
b0 .
b0 7
b0 ?
0E
0%
0`
1V
0F
0I
0C
b100 &
b100 O
b100 W
0Z
b1 (
b1 5
b1 9
b10 *
b0 ,
b111 +
1Y
b11 R
b11 /
b11 N
1!
#540
0!
#570
b10 #
1H
0=
0K
0<
0-
b10 .
b10 7
b10 ?
0E
08
0G
0J
0D
b0 :
0V
0]
b1111 )
b1111 6
1Z
0`
0U
0%
b101 &
b101 O
b101 W
1c
0T
b1111 *
b1111 +
0Y
0_
1b
b100 R
b100 /
b100 N
1!
#600
0!
#630
18
b0 #
1-
1<
0H
1=
0K
b0 .
b0 7
b0 ?
0E
1G
1J
1D
1`
b1110 :
1V
b110 &
b110 O
b110 W
0Z
b1 )
b1 6
b10 *
b11 +
1Y
b101 R
b101 /
b101 N
1!
#660
0!
#690
b10 #
1H
0=
0K
0<
0E
08
0]
0T
0-
b10 .
b10 7
b10 ?
0B
1A
0G
0J
0D
0V
1c
0;
b1 :
1Z
b111 &
b111 O
b111 W
1`
0U
1"
b1011 *
b1 +
0Y
1_
b110 R
b110 /
b110 N
1!
#720
0!
#750
1P
18
0K
b0 #
1T
0c
0B
1<
0E
1U
0]
1>
1=
1A
0G
1J
1D
1V
1-
b0 .
b0 7
b0 ?
0H
1;
1^
1[
b1101 :
b10 &
b10 O
b10 W
0Z
0"
b1011 '
b1011 M
b1011 Q
b10 )
b10 6
0@
1F
b0 *
b1011 +
1Y
b10 (
b10 5
b10 9
b111 R
b111 /
b111 N
b10 0
1!
#780
0!
#810
b1101 #
0U
0P
1B
1K
0-
b1101 .
b1101 7
b1101 ?
1E
0V
0]
1@
1I
1C
0^
0[
1Z
b11 &
b11 O
b11 W
0c
0T
b1111 (
b1111 5
b1111 9
b1 '
b1 M
b1 Q
b1110 *
b1 ,
b0 +
0Y
0b
b10 R
b10 /
b10 N
1!
#840
0!
#870
b0 #
1c
1U
1-
0B
0K
b0 .
b0 7
b0 ?
0E
0%
0`
1V
0@
0I
0C
b100 &
b100 O
b100 W
0Z
b10 (
b10 5
b10 9
b10 *
b0 ,
b111 +
1Y
b11 R
b11 /
b11 N
1!
#900
0!
#930
b11 #
0=
1H
1B
0>
0K
0<
0-
b11 .
b11 7
b11 ?
0E
08
0A
0J
0D
b0 :
0V
0]
b1111 )
b1111 6
1Z
0`
0U
0%
b101 &
b101 O
b101 W
1c
0T
b1111 *
b1111 +
0Y
0_
1b
b100 R
b100 /
b100 N
1!
#960
0!
#990
18
1-
1<
b0 #
1=
0H
0B
1>
0K
b0 .
b0 7
b0 ?
0E
1A
1J
1D
1`
b1101 :
1V
b110 &
b110 O
b110 W
0Z
b10 )
b10 6
b10 *
b11 +
1Y
b101 R
b101 /
b101 N
1!
#1020
0!
#1050
b11 #
0=
1H
0K
0<
0E
08
0]
0>
0T
0-
b11 .
b11 7
b11 ?
1B
1A
0G
0J
0D
b1 )
b1 6
0V
1c
0;
b1 :
1Z
b111 &
b111 O
b111 W
1`
0U
1"
b1011 *
b1 +
0Y
1_
b110 R
b110 /
b110 N
1!
#1080
0!
#1110
b0 #
1P
18
1<
1T
1-
0H
0c
0B
1=
0K
b0 .
b0 7
b0 ?
0E
1U
0]
1>
0A
0G
1J
1D
1V
1;
1^
1[
b1100 :
b10 &
b10 O
b10 W
0Z
0"
b1011 '
b1011 M
b1011 Q
b11 )
b11 6
1@
b0 *
b1011 +
1Y
b11 (
b11 5
b11 9
b111 R
b111 /
b111 N
b11 0
1!
#1140
0!
#1170
b1100 #
0U
0P
1K
0-
b1100 .
b1100 7
b1100 ?
1E
0V
0]
1I
1C
0^
0[
1Z
b11 &
b11 O
b11 W
0c
0T
b1111 (
b1111 5
b1111 9
b1 '
b1 M
b1 Q
b1110 *
b1 ,
b0 +
0Y
0b
b10 R
b10 /
b10 N
1!
#1200
0!
#1230
b0 #
1c
1U
1-
0K
b0 .
b0 7
b0 ?
0E
0%
0`
1V
0I
0C
b100 &
b100 O
b100 W
0Z
b11 (
b11 5
b11 9
b10 *
b0 ,
b111 +
1Y
b11 R
b11 /
b11 N
1!
#1260
0!
#1290
b100 #
1K
0<
0-
b100 .
b100 7
b100 ?
0E
08
0J
0D
b0 :
0V
0]
b1111 )
b1111 6
1Z
0`
0U
0%
b101 &
b101 O
b101 W
1c
0T
b1111 *
b1111 +
0Y
0_
1b
b100 R
b100 /
b100 N
1!
#1320
0!
#1350
b0 #
18
1-
0K
1<
b0 .
b0 7
b0 ?
0E
1J
1D
1`
b1100 :
1V
b110 &
b110 O
b110 W
0Z
b11 )
b11 6
b10 *
b11 +
1Y
b101 R
b101 /
b101 N
1!
#1380
0!
#1410
b100 #
0H
1K
0<
0E
08
0]
0T
0-
b100 .
b100 7
b100 ?
0B
1A
0G
0J
0D
b1 )
b1 6
0V
1c
0;
b1 :
1Z
b111 &
b111 O
b111 W
1`
0U
1"
b1011 *
b1 +
0Y
1_
b110 R
b110 /
b110 N
1!
#1440
0!
#1470
1P
b0 #
1T
0E
0c
0B
18
1U
0]
1>
1=
1<
1A
1G
0J
1D
1V
0H
1-
b0 .
b0 7
b0 ?
0K
1;
1^
1[
b1011 :
b10 &
b10 O
b10 W
0Z
0"
b1011 '
b1011 M
b1011 Q
b100 )
b100 6
0@
0F
1I
b0 *
b1011 +
1Y
b100 (
b100 5
b100 9
b111 R
b111 /
b111 N
b100 0
1!
#1500
0!
#1530
b1011 #
0U
0P
1B
1H
0-
b1011 .
b1011 7
b1011 ?
1E
0V
0]
1@
1F
1C
0^
0[
1Z
b11 &
b11 O
b11 W
0c
0T
b1111 (
b1111 5
b1111 9
b1 '
b1 M
b1 Q
b1110 *
b1 ,
b0 +
0Y
0b
b10 R
b10 /
b10 N
1!
#1560
0!
#1590
b0 #
1c
1U
1-
0B
0H
b0 .
b0 7
b0 ?
0E
0%
0`
1V
0@
0F
0C
b100 &
b100 O
b100 W
0Z
b100 (
b100 5
b100 9
b10 *
b0 ,
b111 +
1Y
b11 R
b11 /
b11 N
1!
#1620
0!
#1650
b101 #
0<
1K
1B
0>
0H
0=
0-
b101 .
b101 7
b101 ?
0E
08
0A
0G
0D
b0 :
0V
0]
b1111 )
b1111 6
1Z
0`
0U
0%
b101 &
b101 O
b101 W
1c
0T
b1111 *
b1111 +
0Y
0_
1b
b100 R
b100 /
b100 N
1!
#1680
0!
#1710
1-
b0 #
1=
18
0B
1>
0H
1<
0K
b0 .
b0 7
b0 ?
0E
1A
1G
0J
1D
1`
b1011 :
1V
b110 &
b110 O
b110 W
0Z
b100 )
b100 6
b10 *
b11 +
1Y
b101 R
b101 /
b101 N
1!
#1740
0!
#1770
b101 #
0<
0=
1K
0E
08
0]
0>
0T
0-
b101 .
b101 7
b101 ?
1B
1A
0G
0J
0D
b1 )
b1 6
0V
1c
0;
b1 :
1Z
b111 &
b111 O
b111 W
1`
0U
1"
b1011 *
b1 +
0Y
1_
b110 R
b110 /
b110 N
1!
#1800
0!
#1830
b0 #
1P
1-
18
1T
0H
1<
0c
0B
1=
0K
b0 .
b0 7
b0 ?
0E
1U
0]
1>
0A
1G
0J
1D
1V
1;
1^
1[
b1010 :
b10 &
b10 O
b10 W
0Z
0"
b1011 '
b1011 M
b1011 Q
b101 )
b101 6
1@
b0 *
b1011 +
1Y
b101 (
b101 5
b101 9
b111 R
b111 /
b111 N
b101 0
1!
#1860
0!
#1890
b1010 #
0U
0P
1H
0-
b1010 .
b1010 7
b1010 ?
1E
0V
0]
1F
1C
0^
0[
1Z
b11 &
b11 O
b11 W
0c
0T
b1111 (
b1111 5
b1111 9
b1 '
b1 M
b1 Q
b1110 *
b1 ,
b0 +
0Y
0b
b10 R
b10 /
b10 N
1!
#1920
0!
#1950
b0 #
1c
1U
1-
0H
b0 .
b0 7
b0 ?
0E
0%
0`
1V
0F
0C
b100 &
b100 O
b100 W
0Z
b101 (
b101 5
b101 9
b10 *
b0 ,
b111 +
1Y
b11 R
b11 /
b11 N
1!
#1980
0!
#2010
b110 #
0<
1K
1H
0=
0-
b110 .
b110 7
b110 ?
0E
08
0G
0D
b0 :
0V
0]
b1111 )
b1111 6
1Z
0`
0U
0%
b101 &
b101 O
b101 W
1c
0T
b1111 *
b1111 +
0Y
0_
1b
b100 R
b100 /
b100 N
1!
#2040
0!
#2070
b0 #
18
1-
0H
1=
1<
0K
b0 .
b0 7
b0 ?
0E
1G
0J
1D
1`
b1010 :
1V
b110 &
b110 O
b110 W
0Z
b101 )
b101 6
b10 *
b11 +
1Y
b101 R
b101 /
b101 N
1!
#2100
0!
#2130
b110 #
0<
1H
0=
1K
0E
08
0]
0T
0-
b110 .
b110 7
b110 ?
0B
1A
0G
0J
0D
b1 )
b1 6
0V
1c
0;
b1 :
1Z
b111 &
b111 O
b111 W
1`
0U
1"
b1011 *
b1 +
0Y
1_
b110 R
b110 /
b110 N
1!
#2160
0!
#2190
1-
0K
1P
18
b0 #
1T
0c
0B
1<
0E
1U
0]
1>
1=
1A
0G
0J
1D
1V
b0 .
b0 7
b0 ?
0H
1;
1^
1[
b1001 :
b10 &
b10 O
b10 W
0Z
0"
b1011 '
b1011 M
b1011 Q
b110 )
b110 6
0@
1F
b0 *
b1011 +
1Y
b110 (
b110 5
b110 9
b111 R
b111 /
b111 N
b110 0
1!
#2220
0!
#2250
b1001 #
0U
0P
1B
0-
b1001 .
b1001 7
b1001 ?
1E
0V
0]
1@
1C
0^
0[
1Z
b11 &
b11 O
b11 W
0c
0T
b1111 (
b1111 5
b1111 9
b1 '
b1 M
b1 Q
b1110 *
b1 ,
b0 +
0Y
0b
b10 R
b10 /
b10 N
1!
#2280
0!
#2310
b0 #
1c
1U
1-
0B
b0 .
b0 7
b0 ?
0E
0%
0`
1V
0@
0C
b100 &
b100 O
b100 W
0Z
b110 (
b110 5
b110 9
b10 *
b0 ,
b111 +
1Y
b11 R
b11 /
b11 N
1!
#2340
0!
#2370
0<
b111 #
1K
0=
1H
1B
0>
0-
b111 .
b111 7
b111 ?
0E
08
0A
0D
b0 :
0V
0]
b1111 )
b1111 6
1Z
0`
0U
0%
b101 &
b101 O
b101 W
1c
0T
b1111 *
b1111 +
0Y
0_
1b
b100 R
b100 /
b100 N
1!
#2400
0!
#2430
1-
b0 #
1=
18
0H
0B
1>
1<
0K
b0 .
b0 7
b0 ?
0E
1A
0J
1D
1`
b1001 :
1V
b110 &
b110 O
b110 W
0Z
b110 )
b110 6
b10 *
b11 +
1Y
b101 R
b101 /
b101 N
1!
#2460
0!
#2490
0<
b111 #
0=
1H
1K
0E
08
0]
0>
0T
0-
b111 .
b111 7
b111 ?
1B
1A
0G
0J
0D
b1 )
b1 6
0V
1c
0;
b1 :
1Z
b111 &
b111 O
b111 W
1`
0U
1"
b1011 *
b1 +
0Y
1_
b110 R
b110 /
b110 N
1!
#2520
0!
#2550
b0 #
1P
1-
18
1T
0H
1<
0c
0B
1=
0K
b0 .
b0 7
b0 ?
0E
1U
0]
1>
0A
0G
0J
1D
1V
1;
1^
1[
b1000 :
b10 &
b10 O
b10 W
0Z
0"
b1011 '
b1011 M
b1011 Q
b111 )
b111 6
1@
b0 *
b1011 +
1Y
b111 (
b111 5
b111 9
b111 R
b111 /
b111 N
b111 0
1!
#2580
0!
#2610
b1000 #
0U
0P
0-
b1000 .
b1000 7
b1000 ?
1E
0V
0]
1C
0^
0[
1Z
b11 &
b11 O
b11 W
0c
0T
b1111 (
b1111 5
b1111 9
b1 '
b1 M
b1 Q
b1110 *
b1 ,
b0 +
0Y
0b
b10 R
b10 /
b10 N
1!
#2640
0!
#2670
b0 #
1c
1U
1-
b0 .
b0 7
b0 ?
0E
0%
0`
1V
0C
b100 &
b100 O
b100 W
0Z
b111 (
b111 5
b111 9
b10 *
b0 ,
b111 +
1Y
b11 R
b11 /
b11 N
1!
#2700
0!
#2730
b1000 #
0-
b1000 .
b1000 7
b1000 ?
1E
08
0D
b0 :
0V
0]
b1111 )
b1111 6
1Z
0`
0U
0%
b101 &
b101 O
b101 W
1c
0T
b1111 *
b1111 +
0Y
0_
1b
b100 R
b100 /
b100 N
1!
#2760
0!
#2790
b0 #
0K
1-
b0 .
b0 7
b0 ?
0E
18
0J
1D
1`
b1000 :
1V
b110 &
b110 O
b110 W
0Z
b111 )
b111 6
b10 *
b11 +
1Y
b101 R
b101 /
b101 N
1!
#2820
0!
#2850
b1000 #
0H
0K
1E
08
0]
0T
0-
b1000 .
b1000 7
b1000 ?
0B
1A
0G
0J
0D
b1 )
b1 6
0V
1c
0;
b1 :
1Z
b111 &
b111 O
b111 W
1`
0U
1"
b1011 *
b1 +
0Y
1_
b110 R
b110 /
b110 N
1!
#2880
0!
#2910
1P
b0 #
1T
0c
0B
1U
0]
1>
1=
1<
18
1A
1G
1J
0D
1V
0H
0K
1-
b0 .
b0 7
b0 ?
0E
1;
1^
1[
b111 :
b10 &
b10 O
b10 W
0Z
0"
b1011 '
b1011 M
b1011 Q
b1000 )
b1000 6
0@
0F
0I
1C
b0 *
b1011 +
1Y
b1000 (
b1000 5
b1000 9
b111 R
b111 /
b111 N
b1000 0
1!
#2940
0!
#2970
b111 #
0U
0P
1B
1H
0-
b111 .
b111 7
b111 ?
1K
0V
0]
1@
1F
1I
0^
0[
1Z
b11 &
b11 O
b11 W
0c
0T
b1111 (
b1111 5
b1111 9
b1 '
b1 M
b1 Q
b1110 *
b1 ,
b0 +
0Y
0b
b10 R
b10 /
b10 N
1!
#3000
0!
#3030
b0 #
1c
1U
1-
0B
0H
b0 .
b0 7
b0 ?
0K
0%
0`
1V
0@
0F
0I
b100 &
b100 O
b100 W
0Z
b1000 (
b1000 5
b1000 9
b10 *
b0 ,
b111 +
1Y
b11 R
b11 /
b11 N
1!
#3060
0!
#3090
b1001 #
08
1E
1B
0>
0H
0=
0-
b1001 .
b1001 7
b1001 ?
0K
0<
0A
0G
0J
b0 :
0V
0]
b1111 )
b1111 6
1Z
0`
0U
0%
b101 &
b101 O
b101 W
1c
0T
b1111 *
b1111 +
0Y
0_
1b
b100 R
b100 /
b100 N
1!
#3120
0!
#3150
1-
1<
b0 #
1=
0B
1>
0H
18
0K
b0 .
b0 7
b0 ?
0E
1A
1G
1J
0D
1`
b111 :
1V
b110 &
b110 O
b110 W
0Z
b1000 )
b1000 6
b10 *
b11 +
1Y
b101 R
b101 /
b101 N
1!
#3180
0!
#3210
b1001 #
08
0=
0K
0<
1E
0]
0>
0T
0-
b1001 .
b1001 7
b1001 ?
1B
1A
0G
0J
0D
b1 )
b1 6
0V
1c
0;
b1 :
1Z
b111 &
b111 O
b111 W
1`
0U
1"
b1011 *
b1 +
0Y
1_
b110 R
b110 /
b110 N
1!
#3240
0!
#3270
b0 #
1P
1<
1T
0H
1-
18
0c
0B
1=
0K
b0 .
b0 7
b0 ?
0E
1U
0]
1>
0A
1G
1J
0D
1V
1;
1^
1[
b110 :
b10 &
b10 O
b10 W
0Z
0"
b1011 '
b1011 M
b1011 Q
b1001 )
b1001 6
1@
b0 *
b1011 +
1Y
b1001 (
b1001 5
b1001 9
b111 R
b111 /
b111 N
b1001 0
1!
#3300
0!
#3330
b110 #
0U
0P
1H
0-
b110 .
b110 7
b110 ?
1K
0V
0]
1F
1I
0^
0[
1Z
b11 &
b11 O
b11 W
0c
0T
b1111 (
b1111 5
b1111 9
b1 '
b1 M
b1 Q
b1110 *
b1 ,
b0 +
0Y
0b
b10 R
b10 /
b10 N
1!
#3360
0!
#3390
b0 #
1c
1U
1-
0H
b0 .
b0 7
b0 ?
0K
0%
0`
1V
0F
0I
b100 &
b100 O
b100 W
0Z
b1001 (
b1001 5
b1001 9
b10 *
b0 ,
b111 +
1Y
b11 R
b11 /
b11 N
1!
#3420
0!
#3450
b1010 #
08
1E
1H
0=
0-
b1010 .
b1010 7
b1010 ?
0K
0<
0G
0J
b0 :
0V
0]
b1111 )
b1111 6
1Z
0`
0U
0%
b101 &
b101 O
b101 W
1c
0T
b1111 *
b1111 +
0Y
0_
1b
b100 R
b100 /
b100 N
1!
#3480
0!
#3510
b0 #
1-
1<
0H
1=
18
0K
b0 .
b0 7
b0 ?
0E
1G
1J
0D
1`
b110 :
1V
b110 &
b110 O
b110 W
0Z
b1001 )
b1001 6
b10 *
b11 +
1Y
b101 R
b101 /
b101 N
1!
#3540
0!
#3570
b1010 #
08
1H
0=
0K
0<
1E
0]
0T
0-
b1010 .
b1010 7
b1010 ?
0B
1A
0G
0J
0D
b1 )
b1 6
0V
1c
0;
b1 :
1Z
b111 &
b111 O
b111 W
1`
0U
1"
b1011 *
b1 +
0Y
1_
b110 R
b110 /
b110 N
1!
#3600
0!
#3630
1P
0K
b0 #
1T
18
0c
0B
1<
1-
0E
1U
0]
1>
1=
1A
0G
1J
0D
1V
b0 .
b0 7
b0 ?
0H
1;
1^
1[
b101 :
b10 &
b10 O
b10 W
0Z
0"
b1011 '
b1011 M
b1011 Q
b1010 )
b1010 6
0@
1F
b0 *
b1011 +
1Y
b1010 (
b1010 5
b1010 9
b111 R
b111 /
b111 N
b1010 0
1!
#3660
0!
#3690
b101 #
0U
0P
1B
0-
b101 .
b101 7
b101 ?
1K
0V
0]
1@
1I
0^
0[
1Z
b11 &
b11 O
b11 W
0c
0T
b1111 (
b1111 5
b1111 9
b1 '
b1 M
b1 Q
b1110 *
b1 ,
b0 +
0Y
0b
b10 R
b10 /
b10 N
1!
#3720
0!
#3750
b0 #
1c
1U
1-
0B
b0 .
b0 7
b0 ?
0K
0%
0`
1V
0@
0I
b100 &
b100 O
b100 W
0Z
b1010 (
b1010 5
b1010 9
b10 *
b0 ,
b111 +
1Y
b11 R
b11 /
b11 N
1!
#3780
0!
#3810
b1011 #
0=
08
1H
1E
1B
0>
0-
b1011 .
b1011 7
b1011 ?
0K
0<
0A
0J
b0 :
0V
0]
b1111 )
b1111 6
1Z
0`
0U
0%
b101 &
b101 O
b101 W
1c
0T
b1111 *
b1111 +
0Y
0_
1b
b100 R
b100 /
b100 N
1!
#3840
0!
#3870
1-
1<
b0 #
1=
0H
0B
1>
18
0K
b0 .
b0 7
b0 ?
0E
1A
1J
0D
1`
b101 :
1V
b110 &
b110 O
b110 W
0Z
b1010 )
b1010 6
b10 *
b11 +
1Y
b101 R
b101 /
b101 N
1!
#3900
0!
#3930
b1011 #
08
0=
1H
0K
0<
1E
0]
0>
0T
0-
b1011 .
b1011 7
b1011 ?
1B
1A
0G
0J
0D
b1 )
b1 6
0V
1c
0;
b1 :
1Z
b111 &
b111 O
b111 W
1`
0U
1"
b1011 *
b1 +
0Y
1_
b110 R
b110 /
b110 N
1!
#3960
0!
#3990
b0 #
1P
1-
1<
1T
0H
18
0c
0B
1=
0K
b0 .
b0 7
b0 ?
0E
1U
0]
1>
0A
0G
1J
0D
1V
1;
1^
1[
b100 :
b10 &
b10 O
b10 W
0Z
0"
b1011 '
b1011 M
b1011 Q
b1011 )
b1011 6
1@
b0 *
b1011 +
1Y
b1011 (
b1011 5
b1011 9
b111 R
b111 /
b111 N
b1011 0
1!
#4020
0!
#4050
b100 #
0U
0P
0-
b100 .
b100 7
b100 ?
1K
0V
0]
1I
0^
0[
1Z
b11 &
b11 O
b11 W
0c
0T
b1111 (
b1111 5
b1111 9
b1 '
b1 M
b1 Q
b1110 *
b1 ,
b0 +
0Y
0b
b10 R
b10 /
b10 N
1!
#4080
0!
#4110
b0 #
1c
1U
1-
b0 .
b0 7
b0 ?
0K
0%
0`
1V
0I
b100 &
b100 O
b100 W
0Z
b1011 (
b1011 5
b1011 9
b10 *
b0 ,
b111 +
1Y
b11 R
b11 /
b11 N
1!
#4140
0!
#4170
b1100 #
08
1E
0-
b1100 .
b1100 7
b1100 ?
1K
0<
0J
b0 :
0V
0]
b1111 )
b1111 6
1Z
0`
0U
0%
b101 &
b101 O
b101 W
1c
0T
b1111 *
b1111 +
0Y
0_
1b
b100 R
b100 /
b100 N
1!
#4200
0!
#4230
b0 #
18
1-
0K
1<
b0 .
b0 7
b0 ?
0E
1J
0D
1`
b100 :
1V
b110 &
b110 O
b110 W
0Z
b1011 )
b1011 6
b10 *
b11 +
1Y
b101 R
b101 /
b101 N
1!
#4260
0!
#4290
b1100 #
08
0H
1K
0<
1E
0]
0T
0-
b1100 .
b1100 7
b1100 ?
0B
1A
0G
0J
0D
b1 )
b1 6
0V
1c
0;
b1 :
1Z
b111 &
b111 O
b111 W
1`
0U
1"
b1011 *
b1 +
0Y
1_
b110 R
b110 /
b110 N
1!
#4320
0!
#4350
1-
1P
b0 #
1T
0E
0c
0B
18
1U
0]
1>
1=
1<
1A
1G
0J
0D
1V
0H
b0 .
b0 7
b0 ?
0K
1;
1^
1[
b11 :
b10 &
b10 O
b10 W
0Z
0"
b1011 '
b1011 M
b1011 Q
b1100 )
b1100 6
0@
0F
1I
b0 *
b1011 +
1Y
b1100 (
b1100 5
b1100 9
b111 R
b111 /
b111 N
b1100 0
1!
#4380
0!
#4410
b11 #
0U
0P
1B
0-
b11 .
b11 7
b11 ?
1H
0V
0]
1@
1F
0^
0[
1Z
b11 &
b11 O
b11 W
0c
0T
b1111 (
b1111 5
b1111 9
b1 '
b1 M
b1 Q
b1110 *
b1 ,
b0 +
0Y
0b
b10 R
b10 /
b10 N
1!
#4440
0!
#4470
b0 #
1c
1U
1-
0B
b0 .
b0 7
b0 ?
0H
0%
0`
1V
0@
0F
b100 &
b100 O
b100 W
0Z
b1100 (
b1100 5
b1100 9
b10 *
b0 ,
b111 +
1Y
b11 R
b11 /
b11 N
1!
#4500
0!
#4530
08
b1101 #
1E
0<
1K
1B
0>
0-
b1101 .
b1101 7
b1101 ?
0H
0=
0A
0G
b0 :
0V
0]
b1111 )
b1111 6
1Z
0`
0U
0%
b101 &
b101 O
b101 W
1c
0T
b1111 *
b1111 +
0Y
0_
1b
b100 R
b100 /
b100 N
1!
#4560
0!
#4590
1-
b0 #
1=
0B
1>
0H
1<
18
0K
b0 .
b0 7
b0 ?
0E
1A
1G
0J
0D
1`
b11 :
1V
b110 &
b110 O
b110 W
0Z
b1100 )
b1100 6
b10 *
b11 +
1Y
b101 R
b101 /
b101 N
1!
#4620
0!
#4650
08
b1101 #
0<
0=
1K
1E
0]
0>
0T
0-
b1101 .
b1101 7
b1101 ?
1B
1A
0G
0J
0D
b1 )
b1 6
0V
1c
0;
b1 :
1Z
b111 &
b111 O
b111 W
1`
0U
1"
b1011 *
b1 +
0Y
1_
b110 R
b110 /
b110 N
1!
#4680
0!
#4710
b0 #
1P
1T
0H
1<
18
0c
1-
0B
1=
0K
b0 .
b0 7
b0 ?
0E
1U
0]
1>
0A
1G
0J
0D
1V
1;
1^
1[
b10 :
b10 &
b10 O
b10 W
0Z
0"
b1011 '
b1011 M
b1011 Q
b1101 )
b1101 6
1@
b0 *
b1011 +
1Y
b1101 (
b1101 5
b1101 9
b111 R
b111 /
b111 N
b1101 0
1!
#4740
0!
#4770
b10 #
0U
0P
0-
b10 .
b10 7
b10 ?
1H
0V
0]
1F
0^
0[
1Z
b11 &
b11 O
b11 W
0c
0T
b1111 (
b1111 5
b1111 9
b1 '
b1 M
b1 Q
b1110 *
b1 ,
b0 +
0Y
0b
b10 R
b10 /
b10 N
1!
#4800
0!
