hw/hw2/alu_tb.vcd
$date
	Tue Feb  7 17:01:07 2023
$end
$version
	Icarus Verilog
$end
$timescale
	100ps
$end
$scope module alu_tb $end
$var wire 4 ! S_expected [3:0] $end
$var wire 4 " S_actual [3:0] $end
$var reg 4 # A [3:0] $end
$var reg 4 $ B [3:0] $end
$var reg 3 % Op [2:0] $end
$var integer 32 & ia [31:0] $end
$var integer 32 ' ib [31:0] $end
$var integer 32 ( iop [31:0] $end
$scope module my_alu $end
$var wire 4 ) A [3:0] $end
$var wire 4 * B [3:0] $end
$var wire 3 + Op [2:0] $end
$var wire 4 , subtractor_sum [3:0] $end
$var wire 1 - subtractor_Cout $end
$var wire 4 . adder_sum [3:0] $end
$var wire 1 / adder_Cout $end
$var wire 4 0 S [3:0] $end
$scope module the_adder $end
$var wire 4 1 A [3:0] $end
$var wire 4 2 B [3:0] $end
$var wire 1 3 Cin $end
$var wire 4 4 S [3:0] $end
$var wire 1 / Cout $end
$var wire 1 5 C3 $end
$var wire 1 6 C2 $end
$var wire 1 7 C1 $end
$scope module FA1 $end
$var wire 1 8 A $end
$var wire 1 9 B $end
$var wire 1 3 Cin $end
$var wire 1 7 Cout $end
$var wire 1 : S $end
$upscope $end
$scope module FA2 $end
$var wire 1 ; A $end
$var wire 1 < B $end
$var wire 1 7 Cin $end
$var wire 1 6 Cout $end
$var wire 1 = S $end
$upscope $end
$scope module FA3 $end
$var wire 1 > A $end
$var wire 1 ? B $end
$var wire 1 6 Cin $end
$var wire 1 5 Cout $end
$var wire 1 @ S $end
$upscope $end
$scope module FA4 $end
$var wire 1 A A $end
$var wire 1 B B $end
$var wire 1 5 Cin $end
$var wire 1 / Cout $end
$var wire 1 C S $end
$upscope $end
$upscope $end
$scope module the_subtractor $end
$var wire 4 D A [3:0] $end
$var wire 4 E B [3:0] $end
$var wire 1 F Cin $end
$var wire 4 G S [3:0] $end
$var wire 1 - Cout $end
$var wire 1 H C3 $end
$var wire 1 I C2 $end
$var wire 1 J C1 $end
$scope module FA1 $end
$var wire 1 K A $end
$var wire 1 L B $end
$var wire 1 F Cin $end
$var wire 1 J Cout $end
$var wire 1 M S $end
$upscope $end
$scope module FA2 $end
$var wire 1 N A $end
$var wire 1 O B $end
$var wire 1 J Cin $end
$var wire 1 I Cout $end
$var wire 1 P S $end
$upscope $end
$scope module FA3 $end
$var wire 1 Q A $end
$var wire 1 R B $end
$var wire 1 I Cin $end
$var wire 1 H Cout $end
$var wire 1 S S $end
$upscope $end
$scope module FA4 $end
$var wire 1 T A $end
$var wire 1 U B $end
$var wire 1 H Cin $end
$var wire 1 - Cout $end
$var wire 1 V S $end
$upscope $end
$upscope $end
$upscope $end
$scope task check $end
$var reg 4 W a [3:0] $end
$var reg 4 X actual [3:0] $end
$var reg 4 Y b [3:0] $end
$var reg 4 Z expected [3:0] $end
$var reg 3 [ op [2:0] $end
$upscope $end
$scope task test $end
$var reg 4 \ a [3:0] $end
$var reg 4 ] b [3:0] $end
$var reg 3 ^ op [2:0] $end
$upscope $end
$upscope $end
$enddefinitions $end
#0
$dumpvars
bx ^
bx ]
bx \
bx [
bx Z
bx Y
bx X
bx W
0V
1U
0T
0S
1R
0Q
0P
1O
0N
0M
1L
0K
1J
1I
1H
b0 G
1F
b1111 E
b0 D
0C
0B
0A
0@
0?
0>
0=
0<
0;
0:
09
08
07
06
05
b0 4
03
b0 2
b0 1
b0 0
0/
b0 .
1-
b0 ,
b0 +
b0 *
b0 )
b0 (
b11111111111111111111111111111000 '
b11111111111111111111111111111000 &
b0 %
b0 $
b0 #
b0 "
b0 !
$end
#200
b1000 ]
b1000 \
b0 ^
#400
1/
b0 ,
b0 G
0V
b1000 !
0U
b1000 "
b1000 0
b111 E
1B
1A
1T
b1000 $
b1000 *
b1000 2
b1000 #
b1000 )
b1000 1
b1000 D
#600
b11111111111111111111111111111001 '
b1000 Z
b1000 X
b1000 Y
b1000 W
b0 [
#800
b1001 ]
#1000
0-
1V
0H
1S
0I
1P
b1111 ,
b1111 G
1M
0J
b1 .
b1 4
1:
0L
b110 E
19
b1001 $
b1001 *
b1001 2
#1200
b11111111111111111111111111111010 '
b1001 Y
#1400
b1010 ]
#1600
0M
1J
b1110 ,
b1110 G
1P
0:
b10 .
b10 4
1=
1L
0O
b101 E
09
1<
b1010 $
b1010 *
b1010 2
#1800
b11111111111111111111111111111011 '
b1010 Y
#2000
b1011 ]
#2200
0P
b1101 ,
b1101 G
1M
0J
b11 .
b11 4
1:
0L
b100 E
19
b1011 $
b1011 *
b1011 2
#2400
b11111111111111111111111111111100 '
b1011 Y
#2600
b1100 ]
#2800
1I
0M
1J
0P
b1100 ,
b1100 G
1S
0:
0=
b100 .
b100 4
1@
1L
1O
0R
b11 E
09
0<
1?
b1100 $
b1100 *
b1100 2
#3000
b11111111111111111111111111111101 '
b1100 Y
#3200
b1101 ]
#3400
0S
0I
1P
b1011 ,
b1011 G
1M
0J
b101 .
b101 4
1:
0L
b10 E
19
b1101 $
b1101 *
b1101 2
#3600
b11111111111111111111111111111110 '
b1101 Y
#3800
b1110 ]
#4000
0M
1J
b1010 ,
b1010 G
1P
0:
b110 .
b110 4
1=
1L
0O
b1 E
09
1<
b1110 $
b1110 *
b1110 2
#4200
b11111111111111111111111111111111 '
b1110 Y
#4400
b1111 ]
#4600
0P
b1001 ,
b1001 G
1M
0J
b111 .
b111 4
1:
0L
b0 E
19
b1111 $
b1111 *
b1111 2
#4800
b0 '
b1111 Y
#5000
b0 ]
#5200
1H
1I
1-
0M
1J
0P
0S
b1000 ,
b1000 G
1V
0/
0:
0=
0@
b1000 .
b1000 4
1C
b0 !
1L
1O
1R
1U
b0 "
b0 0
b1111 E
09
0<
0?
0B
b0 $
b0 *
b0 2
#5400
b1 '
b0 Z
b0 X
b0 Y
#5600
b1 ]
#5800
0V
0H
1S
0I
1P
b111 ,
b111 G
1M
0J
b1001 .
b1001 4
1:
0L
b1110 E
19
b1 $
b1 *
b1 2
#6000
b10 '
b1 Y
#6200
b10 ]
#6400
0M
1J
b110 ,
b110 G
1P
0:
b1010 .
b1010 4
1=
1L
0O
b1101 E
09
1<
b10 $
b10 *
b10 2
#6600
b11 '
b10 Y
#6800
b11 ]
#7000
0P
b101 ,
b101 G
1M
0J
b1011 .
b1011 4
1:
0L
b1100 E
19
b11 $
b11 *
b11 2
#7200
b100 '
b11 Y
#7400
b100 ]
#7600
1I
0M
1J
0P
b100 ,
b100 G
1S
0:
0=
b1100 .
b1100 4
1@
1L
1O
0R
b1011 E
09
0<
1?
b100 $
b100 *
b100 2
#7800
b101 '
b100 Y
#8000
b101 ]
#8200
0S
0I
1P
b11 ,
b11 G
1M
0J
b1101 .
b1101 4
1:
0L
b1010 E
19
b101 $
b101 *
b101 2
#8400
b110 '
b101 Y
#8600
b110 ]
#8800
0M
1J
b10 ,
b10 G
1P
0:
b1110 .
b1110 4
1=
1L
0O
b1001 E
09
1<
b110 $
b110 *
b110 2
#9000
b111 '
b110 Y
#9200
b111 ]
#9400
0P
b1 ,
b1 G
1M
0J
b1111 .
b1111 4
1:
0L
b1000 E
19
b111 $
b111 *
b111 2
#9600
b11111111111111111111111111111001 &
b11111111111111111111111111111000 '
b111 Y
#9800
b1000 ]
b1001 \
#10000
1H
1I
1-
0S
0V
1/
1J
0=
0@
b1 .
b1 4
0C
b1 ,
b1 G
1M
b1000 !
1L
1O
1R
0U
b1000 "
b1000 0
b111 E
09
0<
0?
1B
18
1K
b1000 $
b1000 *
b1000 2
b1001 #
b1001 )
b1001 1
b1001 D
#10200
b11111111111111111111111111111001 '
b1000 Z
b1000 X
b1000 Y
b1001 W
#10400
b1001 ]
#10600
1=
b0 ,
b0 G
0M
17
b10 .
b10 4
0:
b1001 !
0L
b1001 "
b1001 0
b110 E
19
b1001 $
b1001 *
b1001 2
#10800
b11111111111111111111111111111010 '
b1001 Z
b1001 X
b1001 Y
#11000
b1010 ]
#11200
0-
1V
0H
1S
1M
b1111 ,
b1111 G
1P
0I
07
0@
1:
b11 .
b11 4
1=
06
b1000 !
1L
0O
b1000 "
b1000 0
b101 E
09
1<
b1010 $
b1010 *
b1010 2
#11400
b11111111111111111111111111111011 '
b1000 Z
b1000 X
b1010 Y
#11600
b1011 ]
#11800
1@
16
0=
b1110 ,
b1110 G
0M
17
b100 .
b100 4
0:
b1001 !
0L
b1001 "
b1001 0
b100 E
19
b1011 $
b1011 *
b1011 2
#12000
b11111111111111111111111111111100 '
b1001 Z
b1001 X
b1011 Y
#12200
b1100 ]
#12400
1M
0P
1I
b1101 ,
b1101 G
1S
07
0C
1:
0=
06
b101 .
b101 4
1@
05
b1000 !
1L
1O
0R
b1000 "
b1000 0
b11 E
09
0<
1?
b1100 $
b1100 *
b1100 2
#12600
b11111111111111111111111111111101 '
b1000 Z
b1000 X
b1100 Y
#12800
b1101 ]
#13000
1=
b1100 ,
b1100 G
0M
17
b110 .
b110 4
0:
b1001 !
0L
b1001 "
b1001 0
b10 E
19
b1101 $
b1101 *
b1101 2
#13200
b11111111111111111111111111111110 '
b1001 Z
b1001 X
b1101 Y
#13400
b1110 ]
#13600
0C
0S
05
1M
b1011 ,
b1011 G
1P
0I
07
1@
1:
b111 .
b111 4
1=
06
b1000 !
1L
0O
b1000 "
b1000 0
b1 E
09
1<
b1110 $
b1110 *
b1110 2
#13800
b11111111111111111111111111111111 '
b1000 Z
b1000 X
b1110 Y
#14000
b1111 ]
#14200
1C
15
0@
16
0=
b1010 ,
b1010 G
0M
17
b1000 .
b1000 4
0:
b1001 !
0L
b1001 "
b1001 0
b0 E
19
b1111 $
b1111 *
b1111 2
#14400
b0 '
b1001 Z
b1001 X
b1111 Y
#14600
b0 ]
#14800
1H
0/
1-
1M
0P
1I
0S
b1001 ,
b1001 G
1V
07
1:
0=
06
0@
05
b1001 .
b1001 4
1C
b0 !
1L
1O
1R
1U
b0 "
b0 0
b1111 E
09
0<
0?
0B
b0 $
b0 *
b0 2
#15000
b1 '
b0 Z
b0 X
b0 Y
#15200
b1 ]
#15400
1=
b1000 ,
b1000 G
0M
17
b1010 .
b1010 4
0:
b1 !
0L
b1 "
b1 0
b1110 E
19
b1 $
b1 *
b1 2
#15600
b10 '
b1 Z
b1 X
b1 Y
#15800
b10 ]
#16000
0V
0H
1S
1M
b111 ,
b111 G
1P
0I
07
0@
1:
b1011 .
b1011 4
1=
06
b0 !
1L
0O
b0 "
b0 0
b1101 E
09
1<
b10 $
b10 *
b10 2
#16200
b11 '
b0 Z
b0 X
b10 Y
#16400
b11 ]
#16600
1@
16
0=
b110 ,
b110 G
0M
17
b1100 .
b1100 4
0:
b1 !
0L
b1 "
b1 0
b1100 E
19
b11 $
b11 *
b11 2
#16800
b100 '
b1 Z
b1 X
b11 Y
#17000
b100 ]
#17200
0/
1M
0P
1I
b101 ,
b101 G
1S
07
1C
1:
0=
06
b1101 .
b1101 4
1@
05
b0 !
1L
1O
0R
b0 "
b0 0
b1011 E
09
0<
1?
b100 $
b100 *
b100 2
#17400
b101 '
b0 Z
b0 X
b100 Y
#17600
b101 ]
#17800
1=
b100 ,
b100 G
0M
17
b1110 .
b1110 4
0:
b1 !
0L
b1 "
b1 0
b1010 E
19
b101 $
b101 *
b101 2
#18000
b110 '
b1 Z
b1 X
b101 Y
#18200
b110 ]
#18400
0/
1C
0S
05
1M
b11 ,
b11 G
1P
0I
07
1@
1:
b1111 .
b1111 4
1=
06
b0 !
1L
0O
b0 "
b0 0
b1001 E
09
1<
b110 $
b110 *
b110 2
#18600
b111 '
b0 Z
b0 X
b110 Y
#18800
b111 ]
#19000
1/
0C
15
0@
16
0=
b10 ,
b10 G
0M
17
b0 .
b0 4
0:
b1 !
0L
b1 "
b1 0
b1000 E
19
b111 $
b111 *
b111 2
#19200
b11111111111111111111111111111010 &
b11111111111111111111111111111000 '
b1 Z
b1 X
b111 Y
#19400
b1000 ]
b1010 \
#19600
06
1H
1-
1=
0V
07
1I
0@
05
b10 .
b10 4
0C
0M
b10 ,
b10 G
1P
b1000 !
1L
1O
1R
0U
b1000 "
b1000 0
b111 E
09
0<
0?
1B
08
1;
0K
1N
b1000 $
b1000 *
b1000 2
b1010 #
b1010 )
b1010 1
b1010 D
#19800
b11111111111111111111111111111001 '
b1000 Z
b1000 X
b1000 Y
b1010 W
#20000
b1001 ]
#20200
0P
b1 ,
b1 G
1M
0J
b11 .
b11 4
1:
0L
b110 E
19
b1001 $
b1001 *
b1001 2
#20400
b11111111111111111111111111111010 '
b1001 Y
#20600
b1010 ]
#20800
1-
0V
1H
0S
1I
1@
0M
1J
b0 ,
b0 G
0P
16
0:
b100 .
b100 4
0=
b1010 !
1L
0O
b1010 "
b1010 0
b101 E
09
1<
b1010 $
b1010 *
b1010 2
#21000
b11111111111111111111111111111011 '
b1010 Z
b1010 X
b1010 Y
#21200
b1011 ]
#21400
0-
1V
0H
1S
0I
1P
b1111 ,
b1111 G
1M
0J
b101 .
b101 4
1:
0L
b100 E
19
b1011 $
b1011 *
b1011 2
#21600
b11111111111111111111111111111100 '
b1011 Y
#21800
b1100 ]
#22000
1I
0M
1J
1P
b1110 ,
b1110 G
1S
06
0C
0:
1=
b110 .
b110 4
1@
05
b1000 !
1L
1O
0R
b1000 "
b1000 0
b11 E
09
0<
1?
b1100 $
b1100 *
b1100 2
#22200
b11111111111111111111111111111101 '
b1000 Z
b1000 X
b1100 Y
#22400
b1101 ]
#22600
0P
b1101 ,
b1101 G
1M
0J
b111 .
b111 4
1:
0L
b10 E
19
b1101 $
b1101 *
b1101 2
#22800
b11111111111111111111111111111110 '
b1101 Y
#23000
b1110 ]
#23200
1C
1S
15
1I
0@
0M
1J
b1100 ,
b1100 G
0P
16
0:
b1000 .
b1000 4
0=
b1010 !
1L
0O
b1010 "
b1010 0
b1 E
09
1<
b1110 $
b1110 *
b1110 2
#23400
b11111111111111111111111111111111 '
b1010 Z
b1010 X
b1110 Y
#23600
b1111 ]
#23800
0S
0I
1P
b1011 ,
b1011 G
1M
0J
b1001 .
b1001 4
1:
0L
b0 E
19
b1111 $
b1111 *
b1111 2
#24000
b0 '
b1111 Y
#24200
b0 ]
#24400
1H
0/
1I
1-
0M
1J
1P
0S
b1010 ,
b1010 G
1V
06
0:
1=
0@
05
b1010 .
b1010 4
1C
b0 !
1L
1O
1R
1U
b0 "
b0 0
b1111 E
09
0<
0?
0B
b0 $
b0 *
b0 2
#24600
b1 '
b0 Z
b0 X
b0 Y
#24800
b1 ]
#25000
0P
b1001 ,
b1001 G
1M
0J
b1011 .
b1011 4
1:
0L
b1110 E
19
b1 $
b1 *
b1 2
#25200
b10 '
b1 Y
#25400
b10 ]
#25600
1V
1H
0S
1I
1@
0M
1J
b1000 ,
b1000 G
0P
16
0:
b1100 .
b1100 4
0=
b10 !
1L
0O
b10 "
b10 0
b1101 E
09
1<
b10 $
b10 *
b10 2
#25800
b11 '
b10 Z
b10 X
b10 Y
#26000
b11 ]
#26200
0V
0H
1S
0I
1P
b111 ,
b111 G
1M
0J
b1101 .
b1101 4
1:
0L
b1100 E
19
b11 $
b11 *
b11 2
#26400
b100 '
b11 Y
#26600
b100 ]
#26800
0/
1I
0M
1J
1P
b110 ,
b110 G
1S
06
1C
0:
1=
b1110 .
b1110 4
1@
05
b0 !
1L
1O
0R
b0 "
b0 0
b1011 E
09
0<
1?
b100 $
b100 *
b100 2
#27000
b101 '
b0 Z
b0 X
b100 Y
#27200
b101 ]
#27400
0P
b101 ,
b101 G
1M
0J
b1111 .
b1111 4
1:
0L
b1010 E
19
b101 $
b101 *
b101 2
#27600
b110 '
b101 Y
#27800
b110 ]
#28000
1/
0C
1S
15
1I
0@
0M
1J
b100 ,
b100 G
0P
16
0:
b0 .
b0 4
0=
b10 !
1L
0O
b10 "
b10 0
b1001 E
09
1<
b110 $
b110 *
b110 2
#28200
b111 '
b10 Z
b10 X
b110 Y
#28400
b111 ]
#28600
0S
0I
1P
b11 ,
b11 G
1M
0J
b1 .
b1 4
1:
0L
b1000 E
19
b111 $
b111 *
b111 2
#28800
b11111111111111111111111111111011 &
b11111111111111111111111111111000 '
b111 Y
#29000
b1000 ]
b1011 \
#29200
1H
1I
1-
0S
0V
06
1J
1=
0@
05
b11 .
b11 4
0C
b11 ,
b11 G
1M
b1000 !
1L
1O
1R
0U
b1000 "
b1000 0
b111 E
09
0<
0?
1B
18
1K
b1000 $
b1000 *
b1000 2
b1011 #
b1011 )
b1011 1
b1011 D
#29400
b11111111111111111111111111111001 '
b1000 Z
b1000 X
b1000 Y
b1011 W
#29600
b1001 ]
#29800
1@
16
0=
b10 ,
b10 G
0M
17
b100 .
b100 4
0:
b1001 !
0L
b1001 "
b1001 0
b110 E
19
b1001 $
b1001 *
b1001 2
#30000
b11111111111111111111111111111010 '
b1001 Z
b1001 X
b1001 Y
#30200
b1010 ]
#30400
1M
b1 ,
b1 G
0P
07
1:
b101 .
b101 4
0=
b1010 !
1L
0O
b1010 "
b1010 0
b101 E
09
1<
b1010 $
b1010 *
b1010 2
#30600
b11111111111111111111111111111011 '
b1010 Z
b1010 X
b1010 Y
#30800
b1011 ]
#31000
1=
b0 ,
b0 G
0M
17
b110 .
b110 4
0:
b1011 !
0L
b1011 "
b1011 0
b100 E
19
b1011 $
b1011 *
b1011 2
#31200
b11111111111111111111111111111100 '
b1011 Z
b1011 X
b1011 Y
#31400
b1100 ]
#31600
0-
06
1V
1M
1P
b1111 ,
b1111 G
1S
0H
07
0C
1:
1=
b111 .
b111 4
1@
05
b1000 !
1L
1O
0R
b1000 "
b1000 0
b11 E
09
0<
1?
b1100 $
b1100 *
b1100 2
#31800
b11111111111111111111111111111101 '
b1000 Z
b1000 X
b1100 Y
#32000
b1101 ]
#32200
1C
15
0@
16
0=
b1110 ,
b1110 G
0M
17
b1000 .
b1000 4
0:
b1001 !
0L
b1001 "
b1001 0
b10 E
19
b1101 $
b1101 *
b1101 2
#32400
b11111111111111111111111111111110 '
b1001 Z
b1001 X
b1101 Y
#32600
b1110 ]
#32800
1M
b1101 ,
b1101 G
0P
07
1:
b1001 .
b1001 4
0=
b1010 !
1L
0O
b1010 "
b1010 0
b1 E
09
1<
b1110 $
b1110 *
b1110 2
#33000
b11111111111111111111111111111111 '
b1010 Z
b1010 X
b1110 Y
#33200
b1111 ]
#33400
1=
b1100 ,
b1100 G
0M
17
b1010 .
b1010 4
0:
b1011 !
0L
b1011 "
b1011 0
b0 E
19
b1111 $
b1111 *
b1111 2
#33600
b0 '
b1011 Z
b1011 X
b1111 Y
#33800
b0 ]
#34000
06
0/
1-
1M
1P
0S
1H
b1011 ,
b1011 G
1V
07
1:
1=
0@
05
b1011 .
b1011 4
1C
b0 !
1L
1O
1R
1U
b0 "
b0 0
b1111 E
09
0<
0?
0B
b0 $
b0 *
b0 2
#34200
b1 '
b0 Z
b0 X
b0 Y
#34400
b1 ]
#34600
1@
16
0=
b1010 ,
b1010 G
0M
17
b1100 .
b1100 4
0:
b1 !
0L
b1 "
b1 0
b1110 E
19
b1 $
b1 *
b1 2
#34800
b10 '
b1 Z
b1 X
b1 Y
#35000
b10 ]
#35200
1M
b1001 ,
b1001 G
0P
07
1:
b1101 .
b1101 4
0=
b10 !
1L
0O
b10 "
b10 0
b1101 E
09
1<
b10 $
b10 *
b10 2
#35400
b11 '
b10 Z
b10 X
b10 Y
#35600
b11 ]
#35800
1=
b1000 ,
b1000 G
0M
17
b1110 .
b1110 4
0:
b11 !
0L
b11 "
b11 0
b1100 E
19
b11 $
b11 *
b11 2
#36000
b100 '
b11 Z
b11 X
b11 Y
#36200
b100 ]
#36400
06
0/
0V
1M
1P
b111 ,
b111 G
1S
0H
07
1C
1:
1=
b1111 .
b1111 4
1@
05
b0 !
1L
1O
0R
b0 "
b0 0
b1011 E
09
0<
1?
b100 $
b100 *
b100 2
#36600
b101 '
b0 Z
b0 X
b100 Y
#36800
b101 ]
#37000
1/
0C
15
0@
16
0=
b110 ,
b110 G
0M
17
b0 .
b0 4
0:
b1 !
0L
b1 "
b1 0
b1010 E
19
b101 $
b101 *
b101 2
#37200
b110 '
b1 Z
b1 X
b101 Y
#37400
b110 ]
#37600
1M
b101 ,
b101 G
0P
07
1:
b1 .
b1 4
0=
b10 !
1L
0O
b10 "
b10 0
b1001 E
09
1<
b110 $
b110 *
b110 2
#37800
b111 '
b10 Z
b10 X
b110 Y
#38000
b111 ]
#38200
1=
b100 ,
b100 G
0M
17
b10 .
b10 4
0:
b11 !
0L
b11 "
b11 0
b1000 E
19
b111 $
b111 *
b111 2
#38400
b11111111111111111111111111111100 &
b11111111111111111111111111111000 '
b11 Z
b11 X
b111 Y
#38600
b1000 ]
b1100 \
#38800
05
1-
0=
1@
07
1H
06
b100 .
b100 4
0C
0M
0P
b100 ,
b100 G
1S
b1000 !
1L
1O
1R
0U
b1000 "
b1000 0
b111 E
09
0<
0?
1B
08
0;
1>
0K
0N
1Q
b1000 $
b1000 *
b1000 2
b1100 #
b1100 )
b1100 1
b1100 D
#39000
b11111111111111111111111111111001 '
b1000 Z
b1000 X
b1000 Y
b1100 W
#39200
b1001 ]
#39400
0S
0I
1P
b11 ,
b11 G
1M
0J
b101 .
b101 4
1:
0L
b110 E
19
b1001 $
b1001 *
b1001 2
#39600
b11111111111111111111111111111010 '
b1001 Y
#39800
b1010 ]
#40000
0M
1J
b10 ,
b10 G
1P
0:
b110 .
b110 4
1=
1L
0O
b101 E
09
1<
b1010 $
b1010 *
b1010 2
#40200
b11111111111111111111111111111011 '
b1010 Y
#40400
b1011 ]
#40600
0P
b1 ,
b1 G
1M
0J
b111 .
b111 4
1:
0L
b100 E
19
b1011 $
b1011 *
b1011 2
#40800
b11111111111111111111111111111100 '
b1011 Y
#41000
b1100 ]
#41200
1-
1I
0V
1H
1C
0M
1J
0P
b0 ,
b0 G
0S
15
0:
0=
b1000 .
b1000 4
0@
b1100 !
1L
1O
0R
b1100 "
b1100 0
b11 E
09
0<
1?
b1100 $
b1100 *
b1100 2
#41400
b11111111111111111111111111111101 '
b1100 Z
b1100 X
b1100 Y
#41600
b1101 ]
#41800
0-
1V
0H
1S
0I
1P
b1111 ,
b1111 G
1M
0J
b1001 .
b1001 4
1:
0L
b10 E
19
b1101 $
b1101 *
b1101 2
#42000
b11111111111111111111111111111110 '
b1101 Y
#42200
b1110 ]
#42400
0M
1J
b1110 ,
b1110 G
1P
0:
b1010 .
b1010 4
1=
1L
0O
b1 E
09
1<
b1110 $
b1110 *
b1110 2
#42600
b11111111111111111111111111111111 '
b1110 Y
#42800
b1111 ]
#43000
0P
b1101 ,
b1101 G
1M
0J
b1011 .
b1011 4
1:
0L
b0 E
19
b1111 $
b1111 *
b1111 2
#43200
b0 '
b1111 Y
#43400
b0 ]
#43600
0/
1I
1H
1-
0M
1J
0P
1S
b1100 ,
b1100 G
1V
05
0:
0=
1@
b1100 .
b1100 4
1C
b0 !
1L
1O
1R
1U
b0 "
b0 0
b1111 E
09
0<
0?
0B
b0 $
b0 *
b0 2
#43800
b1 '
b0 Z
b0 X
b0 Y
#44000
b1 ]
#44200
0S
0I
1P
b1011 ,
b1011 G
1M
0J
b1101 .
b1101 4
1:
0L
b1110 E
19
b1 $
b1 *
b1 2
#44400
b10 '
b1 Y
#44600
b10 ]
#44800
0M
1J
b1010 ,
b1010 G
1P
0:
b1110 .
b1110 4
1=
1L
0O
b1101 E
09
1<
b10 $
b10 *
b10 2
#45000
b11 '
b10 Y
#45200
b11 ]
#45400
0P
b1001 ,
b1001 G
1M
0J
b1111 .
b1111 4
1:
0L
b1100 E
19
b11 $
b11 *
b11 2
#45600
b100 '
b11 Y
#45800
b100 ]
#46000
1/
1I
1V
1H
0C
0M
1J
0P
b1000 ,
b1000 G
0S
15
0:
0=
b0 .
b0 4
0@
b100 !
1L
1O
0R
b100 "
b100 0
b1011 E
09
0<
1?
b100 $
b100 *
b100 2
#46200
b101 '
b100 Z
b100 X
b100 Y
#46400
b101 ]
#46600
0V
0H
1S
0I
1P
b111 ,
b111 G
1M
0J
b1 .
b1 4
1:
0L
b1010 E
19
b101 $
b101 *
b101 2
#46800
b110 '
b101 Y
#47000
b110 ]
#47200
0M
1J
b110 ,
b110 G
1P
0:
b10 .
b10 4
1=
1L
0O
b1001 E
09
1<
b110 $
b110 *
b110 2
#47400
b111 '
b110 Y
#47600
b111 ]
#47800
0P
b101 ,
b101 G
1M
0J
b11 .
b11 4
1:
0L
b1000 E
19
b111 $
b111 *
b111 2
#48000
b11111111111111111111111111111101 &
b11111111111111111111111111111000 '
b111 Y
#48200
b1000 ]
b1101 \
#48400
1I
1H
1-
1S
0V
05
1J
0=
1@
b101 .
b101 4
0C
b101 ,
b101 G
1M
b1000 !
1L
1O
1R
0U
b1000 "
b1000 0
b111 E
09
0<
0?
1B
18
1K
b1000 $
b1000 *
b1000 2
b1101 #
b1101 )
b1101 1
b1101 D
#48600
b11111111111111111111111111111001 '
b1000 Z
b1000 X
b1000 Y
b1101 W
#48800
b1001 ]
#49000
1=
b100 ,
b100 G
0M
17
b110 .
b110 4
0:
b1001 !
0L
b1001 "
b1001 0
b110 E
19
b1001 $
b1001 *
b1001 2
#49200
b11111111111111111111111111111010 '
b1001 Z
b1001 X
b1001 Y
#49400
b1010 ]
#49600
0C
05
0S
1M
b11 ,
b11 G
1P
0I
07
1@
1:
b111 .
b111 4
1=
06
b1000 !
1L
0O
b1000 "
b1000 0
b101 E
09
1<
b1010 $
b1010 *
b1010 2
#49800
b11111111111111111111111111111011 '
b1000 Z
b1000 X
b1010 Y
#50000
b1011 ]
#50200
1C
15
0@
16
0=
b10 ,
b10 G
0M
17
b1000 .
b1000 4
0:
b1001 !
0L
b1001 "
b1001 0
b100 E
19
b1011 $
b1011 *
b1011 2
#50400
b11111111111111111111111111111100 '
b1001 Z
b1001 X
b1011 Y
#50600
b1100 ]
#50800
1-
0V
1H
1M
0P
1I
b1 ,
b1 G
0S
07
1:
0=
06
b1001 .
b1001 4
0@
b1100 !
1L
1O
0R
b1100 "
b1100 0
b11 E
09
0<
1?
b1100 $
b1100 *
b1100 2
#51000
b11111111111111111111111111111101 '
b1100 Z
b1100 X
b1100 Y
#51200
b1101 ]
#51400
1=
b0 ,
b0 G
0M
17
b1010 .
b1010 4
0:
b1101 !
0L
b1101 "
b1101 0
b10 E
19
b1101 $
b1101 *
b1101 2
#51600
b11111111111111111111111111111110 '
b1101 Z
b1101 X
b1101 Y
#51800
b1110 ]
#52000
0-
1V
0H
1S
1M
b1111 ,
b1111 G
1P
0I
07
0@
1:
b1011 .
b1011 4
1=
06
b1100 !
1L
0O
b1100 "
b1100 0
b1 E
09
1<
b1110 $
b1110 *
b1110 2
#52200
b11111111111111111111111111111111 '
b1100 Z
b1100 X
b1110 Y
#52400
b1111 ]
#52600
1@
16
0=
b1110 ,
b1110 G
0M
17
b1100 .
b1100 4
0:
b1101 !
0L
b1101 "
b1101 0
b0 E
19
b1111 $
b1111 *
b1111 2
#52800
b0 '
b1101 Z
b1101 X
b1111 Y
#53000
b0 ]
#53200
0/
05
1H
1-
1M
0P
1I
1S
b1101 ,
b1101 G
1V
07
1:
0=
06
1@
b1101 .
b1101 4
1C
b0 !
1L
1O
1R
1U
b0 "
b0 0
b1111 E
09
0<
0?
0B
b0 $
b0 *
b0 2
#53400
b1 '
b0 Z
b0 X
b0 Y
#53600
b1 ]
#53800
1=
b1100 ,
b1100 G
0M
17
b1110 .
b1110 4
0:
b1 !
0L
b1 "
b1 0
b1110 E
19
b1 $
b1 *
b1 2
#54000
b10 '
b1 Z
b1 X
b1 Y
#54200
b10 ]
#54400
0/
1C
05
0S
1M
b1011 ,
b1011 G
1P
0I
07
1@
1:
b1111 .
b1111 4
1=
06
b0 !
1L
0O
b0 "
b0 0
b1101 E
09
1<
b10 $
b10 *
b10 2
#54600
b11 '
b0 Z
b0 X
b10 Y
#54800
b11 ]
#55000
1/
0C
15
0@
16
0=
b1010 ,
b1010 G
0M
17
b0 .
b0 4
0:
b1 !
0L
b1 "
b1 0
b1100 E
19
b11 $
b11 *
b11 2
#55200
b100 '
b1 Z
b1 X
b11 Y
#55400
b100 ]
#55600
1V
1H
1M
0P
1I
b1001 ,
b1001 G
0S
07
1:
0=
06
b1 .
b1 4
0@
b100 !
1L
1O
0R
b100 "
b100 0
b1011 E
09
0<
1?
b100 $
b100 *
b100 2
#55800
b101 '
b100 Z
b100 X
b100 Y
#56000
b101 ]
#56200
1=
b1000 ,
b1000 G
0M
17
b10 .
b10 4
0:
b101 !
0L
b101 "
b101 0
b1010 E
19
b101 $
b101 *
b101 2
#56400
b110 '
b101 Z
b101 X
b101 Y
#56600
b110 ]
#56800
0V
0H
1S
1M
b111 ,
b111 G
1P
0I
07
0@
1:
b11 .
b11 4
1=
06
b100 !
1L
0O
b100 "
b100 0
b1001 E
09
1<
b110 $
b110 *
b110 2
#57000
b111 '
b100 Z
b100 X
b110 Y
#57200
b111 ]
#57400
1@
16
0=
b110 ,
b110 G
0M
17
b100 .
b100 4
0:
b101 !
0L
b101 "
b101 0
b1000 E
19
b111 $
b111 *
b111 2
#57600
b11111111111111111111111111111110 &
b11111111111111111111111111111000 '
b101 Z
b101 X
b111 Y
#57800
b1000 ]
b1110 \
#58000
05
06
1H
1-
1=
0V
07
1I
1@
b110 .
b110 4
0C
0M
b110 ,
b110 G
1P
b1000 !
1L
1O
1R
0U
b1000 "
b1000 0
b111 E
09
0<
0?
1B
08
1;
0K
1N
b1000 $
b1000 *
b1000 2
b1110 #
b1110 )
b1110 1
b1110 D
#58200
b11111111111111111111111111111001 '
b1000 Z
b1000 X
b1000 Y
b1110 W
#58400
b1001 ]
