hw/hw3/E15Process_tb.vcd
$date
	Thu Feb 16 17:13:48 2023
$end
$version
	Icarus Verilog
$end
$timescale
	100ps
$end
$scope module E15Process_TB $end
$var reg 1 ! clk $end
$scope module proc $end
$var wire 1 " addNotSub $end
$var wire 1 ! clk $end
$var wire 4 # storeVal [3:0] $end
$var wire 2 $ src [1:0] $end
$var wire 1 % pcz $end
$var wire 4 & pcRes [3:0] $end
$var wire 4 ' pcIncr [3:0] $end
$var wire 4 ( operand2 [3:0] $end
$var wire 4 ) operand1 [3:0] $end
$var wire 4 * opCode [3:0] $end
$var wire 4 + immData [3:0] $end
$var wire 2 , dst [1:0] $end
$var wire 1 - aluOutputZero $end
$var wire 4 . aluOutput [3:0] $end
$var reg 4 / pc [3:0] $end
$var reg 4 0 r0 [3:0] $end
$var reg 4 1 r1 [3:0] $end
$var reg 4 2 r2 [3:0] $end
$var reg 4 3 r3 [3:0] $end
$var reg 1 4 zFlag $end
$scope module dataALU $end
$var wire 1 " addNotSub $end
$var wire 4 5 dst [3:0] $end
$var wire 4 6 src [3:0] $end
$var wire 1 - zFlag $end
$var wire 4 7 res [3:0] $end
$var wire 1 8 Cout $end
$scope module the_adder $end
$var wire 4 9 A [3:0] $end
$var wire 4 : B [3:0] $end
$var wire 1 ; Cin $end
$var wire 1 < temp2 $end
$var wire 1 = temp1 $end
$var wire 1 > temp0 $end
$var wire 4 ? S [3:0] $end
$var wire 1 8 Cout $end
$scope module first $end
$var wire 1 @ A $end
$var wire 1 A B $end
$var wire 1 ; Cin $end
$var wire 1 > Cout $end
$var wire 1 B S $end
$upscope $end
$scope module fourth $end
$var wire 1 C A $end
$var wire 1 D B $end
$var wire 1 8 Cout $end
$var wire 1 E S $end
$var wire 1 < Cin $end
$upscope $end
$scope module second $end
$var wire 1 F A $end
$var wire 1 G B $end
$var wire 1 > Cin $end
$var wire 1 = Cout $end
$var wire 1 H S $end
$upscope $end
$scope module third $end
$var wire 1 I A $end
$var wire 1 J B $end
$var wire 1 = Cin $end
$var wire 1 < Cout $end
$var wire 1 K S $end
$upscope $end
$upscope $end
$upscope $end
$scope module pcALU $end
$var wire 1 L addNotSub $end
$var wire 4 M dst [3:0] $end
$var wire 4 N src [3:0] $end
$var wire 1 % zFlag $end
$var wire 4 O res [3:0] $end
$var wire 1 P Cout $end
$scope module the_adder $end
$var wire 4 Q A [3:0] $end
$var wire 4 R B [3:0] $end
$var wire 1 S Cin $end
$var wire 1 T temp2 $end
$var wire 1 U temp1 $end
$var wire 1 V temp0 $end
$var wire 4 W S [3:0] $end
$var wire 1 P Cout $end
$scope module first $end
$var wire 1 X A $end
$var wire 1 Y B $end
$var wire 1 S Cin $end
$var wire 1 V Cout $end
$var wire 1 Z S $end
$upscope $end
$scope module fourth $end
$var wire 1 [ A $end
$var wire 1 \ B $end
$var wire 1 P Cout $end
$var wire 1 ] S $end
$var wire 1 T Cin $end
$upscope $end
$scope module second $end
$var wire 1 ^ A $end
$var wire 1 _ B $end
$var wire 1 V Cin $end
$var wire 1 U Cout $end
$var wire 1 ` S $end
$upscope $end
$scope module third $end
$var wire 1 a A $end
$var wire 1 b B $end
$var wire 1 U Cin $end
$var wire 1 T Cout $end
$var wire 1 c S $end
$upscope $end
$upscope $end
$upscope $end
$upscope $end
$upscope $end
$enddefinitions $end
#0
$dumpvars
0c
0b
0a
0`
0_
0^
0]
0\
0[
1Z
0Y
1X
b1 W
0V
0U
0T
0S
b0 R
b1 Q
0P
b1 O
b0 N
b1 M
1L
xK
xJ
xI
xH
xG
xF
xE
xD
xC
xB
xA
x@
bx ?
x>
x=
x<
1;
bx :
bx 9
x8
bx 7
bx 6
bx 5
x4
bx 3
bx 2
bx 1
bx 0
b0 /
bx .
x-
b0 ,
b1 +
b1001 *
bx )
bx (
b1 '
b1 &
0%
b0 $
b1 #
0"
0!
$end
#30
x8
x<
x=
1`
0A
1G
1J
1D
x>
1V
b1110 :
0%
b10 &
b10 O
b10 W
0Z
b101 #
b1 )
b1 6
x@
xF
xI
xC
b1 ,
b101 +
1Y
bx (
bx 5
bx 9
b1 R
b1 /
b1 N
b1 0
1!
#60
0!
#90
x=
x8
x>
x<
bx .
bx 7
bx ?
xB
0V
0c
1Z
0%
b11 &
b11 O
b11 W
1`
0U
x@
xF
xI
xC
b0 #
bx (
bx 5
bx 9
b10 ,
b0 +
0Y
1_
b10 R
b10 /
b10 N
b101 1
1!
#120
0!
#150
18
0E
1<
0K
0-
1=
0H
1c
1A
1>
1U
b1111 :
b1 .
b1 7
b1 ?
1B
0%
0`
1V
b0 )
b0 6
1@
0F
0I
0C
b100 &
b100 O
b100 W
0Z
b1 #
b1 (
b1 5
b1 9
b1111 *
b0 ,
1Y
b11 R
b11 /
b11 N
b0 2
1!
#180
0!
#210
b0 #
1-
18
0B
0E
b0 .
b0 7
b0 ?
0K
1<
0A
1J
b1110 :
0V
0]
1Z
0`
0U
0%
b101 &
b101 O
b101 W
1c
0T
b1 )
b1 6
b10 *
b100 +
0Y
0_
1b
b100 R
b100 /
b100 N
04
1!
#240
0!
#270
b101 #
0<
0>
0=
08
0H
1K
0E
1`
0-
b101 .
b101 7
b101 ?
1B
1A
0G
0D
1V
0;
b101 :
b101 )
b101 6
0@
0F
0I
0C
b110 &
b110 O
b110 W
0Z
1"
b0 (
b0 5
b0 9
b1010 *
b1 $
b10 ,
b0 +
1Y
b101 R
b101 /
b101 N
1!
#300
0!
#330
18
b0 #
1-
1<
1=
0B
0K
b0 .
b0 7
b0 ?
0E
1>
0]
0T
0A
1G
1J
1D
0V
1c
1;
b1110 :
b1 )
b1 6
1@
1Z
b111 &
b111 O
b111 W
1`
0U
0"
b1 (
b1 5
b1 9
b1101 *
b0 $
b0 ,
b1 +
0Y
1_
b110 R
b110 /
b110 N
b101 2
1!
#360
0!
#390
1P
b0 #
1<
0E
18
1=
1T
0U
0H
0c
0]
1A
1J
1D
1`
1>
b1111 :
0V
1-
b0 .
b0 7
b0 ?
0B
0X
1a
1[
b11 &
b11 O
b11 W
1Z
b1100 '
b1100 M
b1100 Q
b0 )
b0 6
0@
b0 *
b1100 +
1Y
b0 (
b0 5
b0 9
b111 R
b111 /
b111 N
b0 0
14
1!
#420
0!
#450
1U
0%
0`
1V
0P
0Z
0T
1X
0a
0[
b100 &
b100 O
b100 W
1c
b1 '
b1 M
b1 Q
b1111 *
b0 +
0b
b11 R
b11 /
b11 N
1!
#480
0!
#510
b0 #
18
0E
1-
b0 .
b0 7
b0 ?
0K
1<
0X
1a
1J
b100 '
b100 M
b100 Q
b1111 :
0V
1]
0Z
0`
0U
0%
b1000 &
b1000 O
b1000 W
0c
1T
b0 )
b0 6
b10 *
b100 +
0Y
0_
1b
b100 R
b100 /
b100 N
1!
#540
0!
#570
0T
0a
0c
0%
b1000 &
b1000 O
b1000 W
1]
0P
b0 '
b0 M
b0 Q
b0 *
b0 +
0b
1\
b1000 R
b1000 /
b1000 N
1!
