hw/hw3/E15Process_tb.vcd
$date
	Wed Mar 22 23:06:31 2023
$end
$version
	Icarus Verilog
$end
$timescale
	100ps
$end
$scope module E15Process_TB $end
$var reg 1 ! clk $end
$scope module proc $end
$var wire 1 " addNotSub $end
$var wire 1 ! clk $end
$var wire 4 # storeVal [3:0] $end
$var wire 2 $ src [1:0] $end
$var wire 1 % pcz $end
$var wire 4 & pcRes [3:0] $end
$var wire 4 ' pcIncr [3:0] $end
$var wire 4 ( operand2 [3:0] $end
$var wire 4 ) operand1 [3:0] $end
$var wire 4 * opCode [3:0] $end
$var wire 4 + immData [3:0] $end
$var wire 2 , dst [1:0] $end
$var wire 1 - aluOutputZero $end
$var wire 4 . aluOutput [3:0] $end
$var reg 4 / pc [3:0] $end
$var reg 4 0 r0 [3:0] $end
$var reg 4 1 r1 [3:0] $end
$var reg 4 2 r2 [3:0] $end
$var reg 4 3 r3 [3:0] $end
$var reg 1 4 zFlag $end
$scope module dataALU $end
$var wire 1 " addNotSub $end
$var wire 4 5 dst [3:0] $end
$var wire 4 6 src [3:0] $end
$var wire 1 - zFlag $end
$var wire 4 7 res [3:0] $end
$var wire 1 8 Cout $end
$scope module the_adder $end
$var wire 4 9 A [3:0] $end
$var wire 4 : B [3:0] $end
$var wire 1 ; Cin $end
$var wire 1 < temp2 $end
$var wire 1 = temp1 $end
$var wire 1 > temp0 $end
$var wire 4 ? S [3:0] $end
$var wire 1 8 Cout $end
$scope module first $end
$var wire 1 @ A $end
$var wire 1 A B $end
$var wire 1 ; Cin $end
$var wire 1 > Cout $end
$var wire 1 B S $end
$upscope $end
$scope module fourth $end
$var wire 1 C A $end
$var wire 1 D B $end
$var wire 1 8 Cout $end
$var wire 1 E S $end
$var wire 1 < Cin $end
$upscope $end
$scope module second $end
$var wire 1 F A $end
$var wire 1 G B $end
$var wire 1 > Cin $end
$var wire 1 = Cout $end
$var wire 1 H S $end
$upscope $end
$scope module third $end
$var wire 1 I A $end
$var wire 1 J B $end
$var wire 1 = Cin $end
$var wire 1 < Cout $end
$var wire 1 K S $end
$upscope $end
$upscope $end
$upscope $end
$scope module pcALU $end
$var wire 1 L addNotSub $end
$var wire 4 M dst [3:0] $end
$var wire 4 N src [3:0] $end
$var wire 1 % zFlag $end
$var wire 4 O res [3:0] $end
$var wire 1 P Cout $end
$scope module the_adder $end
$var wire 4 Q A [3:0] $end
$var wire 4 R B [3:0] $end
$var wire 1 S Cin $end
$var wire 1 T temp2 $end
$var wire 1 U temp1 $end
$var wire 1 V temp0 $end
$var wire 4 W S [3:0] $end
$var wire 1 P Cout $end
$scope module first $end
$var wire 1 X A $end
$var wire 1 Y B $end
$var wire 1 S Cin $end
$var wire 1 V Cout $end
$var wire 1 Z S $end
$upscope $end
$scope module fourth $end
$var wire 1 [ A $end
$var wire 1 \ B $end
$var wire 1 P Cout $end
$var wire 1 ] S $end
$var wire 1 T Cin $end
$upscope $end
$scope module second $end
$var wire 1 ^ A $end
$var wire 1 _ B $end
$var wire 1 V Cin $end
$var wire 1 U Cout $end
$var wire 1 ` S $end
$upscope $end
$scope module third $end
$var wire 1 a A $end
$var wire 1 b B $end
$var wire 1 U Cin $end
$var wire 1 T Cout $end
$var wire 1 c S $end
$upscope $end
$upscope $end
$upscope $end
$upscope $end
$upscope $end
$enddefinitions $end
#0
$dumpvars
0c
0b
0a
0`
0_
0^
0]
0\
0[
1Z
0Y
1X
b1 W
0V
0U
0T
0S
b0 R
b1 Q
0P
b1 O
b0 N
b1 M
1L
xK
xJ
xI
xH
xG
xF
xE
xD
xC
xB
xA
x@
bx ?
x>
x=
x<
1;
bx :
bx 9
x8
bx 7
bx 6
bx 5
x4
bx 3
bx 2
bx 1
bx 0
b0 /
bx .
x-
b10 ,
b0 +
b1001 *
bx )
bx (
b1 '
b1 &
0%
b0 $
b0 #
0"
0!
$end
#30
1`
1V
0%
b10 &
b10 O
b10 W
0Z
b1 #
b1 ,
b1 +
1Y
b1 R
b1 /
b1 N
b0 2
1!
#60
0!
#90
0H
0>
0K
0E
0-
b1 .
b1 7
b1 ?
1B
0=
0<
08
1A
0G
0J
0D
0V
0c
0;
b1 :
b1 )
b1 6
1Z
0%
b11 &
b11 O
b11 W
1`
0U
0@
0F
0I
0C
1"
b1 #
b0 (
b0 5
b0 9
b1010 *
b1 $
b10 ,
b0 +
0Y
1_
b10 R
b10 /
b10 N
b1 1
1!
#120
0!
#150
b1010 #
1c
1>
1H
0K
1E
1U
0%
0`
0-
b1010 .
b1010 7
b1010 ?
0B
0A
0G
0J
1D
1V
1@
1;
b1000 :
b111 )
b111 6
b100 &
b100 O
b100 W
0Z
b1 (
b1 5
b1 9
0"
b1111 *
b0 $
b111 +
1Y
b11 R
b11 /
b11 N
b1 2
04
1!
#180
0!
#210
1P
bx #
x>
x<
0X
1^
1a
1[
xG
xJ
x=
x8
b1110 '
b1110 M
b1110 Q
xB
x-
xH
xK
bx .
bx 7
bx ?
xE
xA
xD
bx :
0V
0]
x@
xF
xI
xC
0Z
1`
0U
0%
b10 &
b10 O
b10 W
0c
1T
bx (
bx 5
bx 9
bx )
bx 6
b11 *
b0 ,
b1110 +
0Y
0_
1b
b100 R
b100 /
b100 N
1!
#240
0!
#270
b10 #
0K
0E
1Z
0-
1H
0=
0<
08
0P
1>
b10 .
b10 7
b10 ?
0B
1X
1@
0F
0I
0C
0^
0a
0[
0]
1A
0G
0J
0D
b1 (
b1 5
b1 9
b1 '
b1 M
b1 Q
0U
0T
0;
b1 :
b1 )
b1 6
1`
b11 &
b11 O
b11 W
0c
1"
b1010 *
b1 $
b10 ,
b0 +
1_
0b
b10 R
b10 /
b10 N
1!
#300
0!
#330
b1011 #
1c
0>
0=
0K
1E
1U
0%
0`
b1011 .
b1011 7
b1011 ?
1B
0A
0G
0J
1D
1V
0@
1F
1;
b1000 :
b111 )
b111 6
b100 &
b100 O
b100 W
0Z
b10 (
b10 5
b10 9
0"
b1111 *
b0 $
b111 +
1Y
b11 R
b11 /
b11 N
b10 2
1!
#360
0!
#390
1P
bx #
x<
x=
0X
1^
1a
1[
xG
xJ
x>
x8
b1110 '
b1110 M
b1110 Q
x-
xB
xH
xK
bx .
bx 7
bx ?
xE
xA
xD
bx :
0V
0]
x@
xF
xI
xC
0Z
1`
0U
0%
b10 &
b10 O
b10 W
0c
1T
bx (
bx 5
bx 9
bx )
bx 6
b11 *
b0 ,
b1110 +
0Y
0_
1b
b100 R
b100 /
b100 N
1!
#420
0!
#450
b11 #
0K
0=
0E
1Z
1H
0<
08
0P
0>
0-
b11 .
b11 7
b11 ?
1B
1X
0@
1F
0I
0C
0^
0a
0[
0]
1A
0G
0J
0D
b10 (
b10 5
b10 9
b1 '
b1 M
b1 Q
0U
0T
0;
b1 :
b1 )
b1 6
1`
b11 &
b11 O
b11 W
0c
1"
b1010 *
b1 $
b10 ,
b0 +
1_
0b
b10 R
b10 /
b10 N
1!
#480
0!
#510
b1100 #
1=
1c
1>
0H
1K
1E
1U
0%
0`
b1100 .
b1100 7
b1100 ?
0B
0A
0G
0J
1D
1V
1@
1;
b1000 :
b111 )
b111 6
b100 &
b100 O
b100 W
0Z
b11 (
b11 5
b11 9
0"
b1111 *
b0 $
b111 +
1Y
b11 R
b11 /
b11 N
b11 2
1!
#540
0!
#570
1P
bx #
x>
0X
1^
1a
1[
xG
xJ
x=
x<
x8
b1110 '
b1110 M
b1110 Q
xB
xH
x-
xK
bx .
bx 7
bx ?
xE
xA
xD
bx :
0V
0]
x@
xF
xI
xC
0Z
1`
0U
0%
b10 &
b10 O
b10 W
0c
1T
bx (
bx 5
bx 9
bx )
bx 6
b11 *
b0 ,
b1110 +
0Y
0_
1b
b100 R
b100 /
b100 N
1!
#600
0!
#630
b100 #
0-
1K
1=
0E
1Z
0H
0<
08
0P
1>
b100 .
b100 7
b100 ?
0B
1X
1@
1F
0I
0C
0^
0a
0[
0]
1A
0G
0J
0D
b11 (
b11 5
b11 9
b1 '
b1 M
b1 Q
0U
0T
0;
b1 :
b1 )
b1 6
1`
b11 &
b11 O
b11 W
0c
1"
b1010 *
b1 $
b10 ,
b0 +
1_
0b
b10 R
b10 /
b10 N
1!
#660
0!
#690
b1101 #
08
0=
1K
1c
0>
0<
1E
1U
0%
0`
b1101 .
b1101 7
b1101 ?
1B
0A
0G
0J
1D
1V
0@
0F
1I
1;
b1000 :
b111 )
b111 6
b100 &
b100 O
b100 W
0Z
b100 (
b100 5
b100 9
0"
b1111 *
b0 $
b111 +
1Y
b11 R
b11 /
b11 N
b100 2
1!
#720
0!
#750
1P
bx #
x<
x=
0X
1^
1a
1[
xG
xJ
x>
x8
b1110 '
b1110 M
b1110 Q
x-
xB
xH
xK
bx .
bx 7
bx ?
xE
xA
xD
bx :
0V
0]
x@
xF
xI
xC
0Z
1`
0U
0%
b10 &
b10 O
b10 W
0c
1T
bx (
bx 5
bx 9
bx )
bx 6
b11 *
b0 ,
b1110 +
0Y
0_
1b
b100 R
b100 /
b100 N
1!
#780
0!
#810
b101 #
0E
0<
1K
1Z
0H
0=
08
0P
0>
0-
b101 .
b101 7
b101 ?
1B
1X
0@
0F
1I
0C
0^
0a
0[
0]
1A
0G
0J
0D
b100 (
b100 5
b100 9
b1 '
b1 M
b1 Q
0U
0T
0;
b1 :
b1 )
b1 6
1`
b11 &
b11 O
b11 W
0c
1"
b1010 *
b1 $
b10 ,
b0 +
1_
0b
b10 R
b10 /
b10 N
1!
#840
0!
#870
b1110 #
08
0<
1c
1>
1H
1K
1E
1U
0%
0`
b1110 .
b1110 7
b1110 ?
0B
0A
0G
0J
1D
1V
1@
1;
b1000 :
b111 )
b111 6
b100 &
b100 O
b100 W
0Z
b101 (
b101 5
b101 9
0"
b1111 *
b0 $
b111 +
1Y
b11 R
b11 /
b11 N
b101 2
1!
#900
0!
#930
1P
bx #
x>
x<
0X
1^
1a
1[
xG
xJ
x=
x8
b1110 '
b1110 M
b1110 Q
xB
x-
xH
xK
bx .
bx 7
bx ?
xE
xA
xD
bx :
0V
0]
x@
xF
xI
xC
0Z
1`
0U
0%
b10 &
b10 O
b10 W
0c
1T
bx (
bx 5
bx 9
bx )
bx 6
b11 *
b0 ,
b1110 +
0Y
0_
1b
b100 R
b100 /
b100 N
1!
#960
0!
#990
b110 #
0E
0<
1K
1Z
0-
1H
0=
08
0P
1>
b110 .
b110 7
b110 ?
0B
1X
1@
0F
1I
0C
0^
0a
0[
0]
1A
0G
0J
0D
b101 (
b101 5
b101 9
b1 '
b1 M
b1 Q
0U
0T
0;
b1 :
b1 )
b1 6
1`
b11 &
b11 O
b11 W
0c
1"
b1010 *
b1 $
b10 ,
b0 +
1_
0b
b10 R
b10 /
b10 N
1!
#1020
0!
#1050
b1111 #
08
0<
1c
0>
0=
1K
1E
1U
0%
0`
b1111 .
b1111 7
b1111 ?
1B
0A
0G
0J
1D
1V
0@
1F
1;
b1000 :
b111 )
b111 6
b100 &
b100 O
b100 W
0Z
b110 (
b110 5
b110 9
0"
b1111 *
b0 $
b111 +
1Y
b11 R
b11 /
b11 N
b110 2
1!
#1080
0!
#1110
1P
bx #
x<
x=
0X
1^
1a
1[
xG
xJ
x>
x8
b1110 '
b1110 M
b1110 Q
x-
xB
xH
xK
bx .
bx 7
bx ?
xE
xA
xD
bx :
0V
0]
x@
xF
xI
xC
0Z
1`
0U
0%
b10 &
b10 O
b10 W
0c
1T
bx (
bx 5
bx 9
bx )
bx 6
b11 *
b0 ,
b1110 +
0Y
0_
1b
b100 R
b100 /
b100 N
1!
#1140
0!
#1170
0E
0<
b111 #
1K
0=
1Z
1H
08
0P
0>
0-
b111 .
b111 7
b111 ?
1B
1X
0@
1F
1I
0C
0^
0a
0[
0]
1A
0G
0J
0D
b110 (
b110 5
b110 9
b1 '
b1 M
b1 Q
0U
0T
0;
b1 :
b1 )
b1 6
1`
b11 &
b11 O
b11 W
0c
1"
b1010 *
b1 $
b10 ,
b0 +
1_
0b
b10 R
b10 /
b10 N
1!
#1200
0!
#1230
b0 #
18
1-
1=
1<
1c
1>
0H
0K
0E
1U
0%
0`
b0 .
b0 7
b0 ?
0B
0A
0G
0J
1D
1V
1@
1;
b1000 :
b111 )
b111 6
b100 &
b100 O
b100 W
0Z
b111 (
b111 5
b111 9
0"
b1111 *
b0 $
b111 +
1Y
b11 R
b11 /
b11 N
b111 2
1!
#1260
0!
#1290
bx #
x>
xG
xJ
x=
x<
x8
xB
xH
xK
x-
bx .
bx 7
bx ?
xE
xA
xD
bx :
0V
0]
x@
xF
xI
xC
1Z
0`
0U
0%
b101 &
b101 O
b101 W
1c
0T
bx (
bx 5
bx 9
bx )
bx 6
b11 *
b0 ,
b1110 +
0Y
0_
1b
b100 R
b100 /
b100 N
14
1!
#1320
0!
#1350
0`
0V
0X
b101 &
b101 O
b101 W
1Z
b0 '
b0 M
b0 Q
b0 *
b0 +
1Y
b101 R
b101 /
b101 N
1!
